{
  "prepare_queue": {
    "installed": [],
    "uninstalled": []
  },
  "config_munge": {
    "files": {}
  },
  "installed_plugins": {
    "cordova-plugin-device": {
      "PACKAGE_NAME": "com.prabhashi.avalone"
    },
    "cordova-plugin-ionic-keyboard": {
      "PACKAGE_NAME": "com.prabhashi.avalone"
    },
    "cordova-plugin-ionic-webview": {
      "ANDROID_SUPPORT_ANNOTATIONS_VERSION": "27.+",
      "PACKAGE_NAME": "com.prabhashi.avalone"
    },
    "cordova-plugin-splashscreen": {
      "PACKAGE_NAME": "com.prabhashi.avalone"
    },
    "cordova-plugin-statusbar": {
      "PACKAGE_NAME": "com.prabhashi.avalone"
    },
    "cordova-plugin-whitelist": {
      "PACKAGE_NAME": "com.prabhashi.avalone"
    },
    "cordova-sqlite-storage": {
      "PACKAGE_NAME": "com.prabhashi.avalone"
    },
    "cordova-plugin-screen-orientation": {
      "PACKAGE_NAME": "com.prabhashi.avalone"
    }
  },
  "dependent_plugins": {
    "es6-promise-plugin": {
      "PACKAGE_NAME": "com.prabhashi.avalone"
    }
  }
}
